{
  "counts": [
    {
      "name": "headbust",
      "count": 12
    },
    {
      "name": "cucked",
      "count": 9
    },
    {
      "name": "gotem",
      "count": 3
    },
    {
      "name": "fookin",
      "count": 7
    },
    {
      "name": "bsr",
      "count": 12
    },
    {
      "name": "ha",
      "count": 2
    }
  ],
  "ignoreList": []
}