{
  "client_id": "399047876866736145",
  "token": "Mzk5MDQ3ODc2ODY2NzM2MTQ1.DTHaYw.kkT1BiXk7hJ1zoy9XI93TIFloLs",
  "prefix": "$",
  "extensions": [".mp3", ".wav"],
  "size": 1000000,
  "deleteMessages": true,
  "stayInChannel": true
}